<svg xmlns="http://www.w3.org/2000/svg" width="167.024" height="85.3" viewBox="0 0 167.024 85.3">
  <g id="frontend-d4a55dfbcbcf5b3d34410eb8d13acfdc5d8b8e3a432b30862fb80a989d92ee16" transform="translate(-0.618 -41.3)">
    <g id="Group_34446" data-name="Group 34446">
      <path id="Path_38374" data-name="Path 38374" d="M78.5,126.6a3.9,3.9,0,0,0,3.9-3.9,3.971,3.971,0,0,0-3.9-3.9h0a3.9,3.9,0,0,0-3.9,3.9A3.842,3.842,0,0,0,78.5,126.6Zm0-2a1.9,1.9,0,0,1,0-3.8h0a1.9,1.9,0,0,1,1.9,1.9A1.967,1.967,0,0,1,78.5,124.6Zm33.7,2a3.9,3.9,0,0,0,3.9-3.9,3.971,3.971,0,0,0-3.9-3.9h0a3.9,3.9,0,0,0-3.9,3.9A3.783,3.783,0,0,0,112.2,126.6Zm0-2a1.9,1.9,0,0,1,0-3.8h0a1.9,1.9,0,0,1,1.9,1.9A1.967,1.967,0,0,1,112.2,124.6Zm-16.5,2a3.9,3.9,0,0,0,3.9-3.9,3.971,3.971,0,0,0-3.9-3.9h0a3.9,3.9,0,0,0-3.9,3.9A3.842,3.842,0,0,0,95.7,126.6Zm0-2a1.9,1.9,0,0,1,0-3.8h0a1.9,1.9,0,1,1,0,3.8Z" fill="#f9830d"/>
      <path id="Path_38375" data-name="Path 38375" d="M52.7,126.3,83.3,69.1l-1.8-.9L51,125.4Z" fill="#f9830d"/>
      <path id="Path_38376" data-name="Path 38376" d="M41,41.3,4.1,75.9a10.932,10.932,0,0,0-.5,15.5l.5.5L41,126.6l1.4-1.5L5.5,90.5A8.913,8.913,0,0,1,5,77.8l.4-.4L42.3,42.8Zm86.3,0,36.9,34.6a11.023,11.023,0,0,1,.5,15.5l-.5.5-36.9,34.6-1.4-1.5,36.9-34.6a9,9,0,0,0,.4-12.7l-.4-.4L126,42.7Z" fill="#d2d2d2"/>
    </g>
  </g>
</svg>
