<svg id="web-development-f57f945ac3d2e4ad5cd7eef178955a56365fef56bea2ac877cd8accd4028e16f" xmlns="http://www.w3.org/2000/svg" width="251" height="251" viewBox="0 0 251 251">
  <rect id="Rectangle_18269" data-name="Rectangle 18269" width="251" height="251" fill="#d8d8d8" opacity="0.01"/>
  <g id="svg_xml_base64_PHN2ZyB4bWxucz0iaHR0cDovL3d3dy53My5vcmcvMjAwMC9zdmciIHdpZHRoPSI1NiIgaGVpZ2h0PSI3MiIgdmlld0JveD0iMCAwIDU2IDcyIj4KPGcgZmlsbD0ibm9uZSIgZml" data-name="svg+xml;base64,PHN2ZyB4bWxucz0iaHR0cDovL3d3dy53My5vcmcvMjAwMC9zdmciIHdpZHRoPSI1NiIgaGVpZ2h0PSI3MiIgdmlld0JveD0iMCAwIDU2IDcyIj4KPGcgZmlsbD0ibm9uZSIgZml" transform="translate(55 36.324)">
    <path id="Path_36734" data-name="Path 36734" d="M49.387,144.986H7.911A7.873,7.873,0,0,1,0,137.148V7.835A7.871,7.871,0,0,1,7.911,0H71.2A7.873,7.873,0,0,1,79.11,7.835V22.006" fill="none" stroke="#d1d1d1" stroke-width="2" fill-rule="evenodd"/>
    <path id="Path_36736" data-name="Path 36736" d="M0,120.4H49.387m10.4,28.555h79.108M79.108,4.116H0" transform="translate(0 6.388)" fill="none" stroke="#d1d1d1" stroke-linejoin="round" stroke-width="2" fill-rule="evenodd"/>
    <path id="Path_36737" data-name="Path 36737" d="M4.574,9.688H30.615V33.026H4.574Zm0,36.246H30.615V69.273H4.574Z" transform="translate(7.099 15.036)" fill="none" stroke="#ec8836" stroke-width="2" fill-rule="evenodd"/>
    <g id="Group_34322" data-name="Group 34322" transform="translate(59.784 33.656)">
      <path id="Path_36735" data-name="Path 36735" d="M102.534,150.339a7.871,7.871,0,0,1-7.911,7.835H31.337a7.871,7.871,0,0,1-7.911-7.835V21.028a7.874,7.874,0,0,1,7.911-7.84H94.622a7.873,7.873,0,0,1,7.911,7.837V150.336Z" transform="translate(-23.426 -13.188)" fill="none" stroke="#d1d1d1" stroke-width="2" fill-rule="evenodd"/>
      <path id="Path_36738" data-name="Path 36738" d="M102.534,21.3H23.426" transform="translate(-23.426 -0.592)" fill="none" stroke="#d1d1d1" stroke-linejoin="round" stroke-width="2" fill-rule="evenodd"/>
      <path id="Path_36739" data-name="Path 36739" d="M28,25.862H82.631v56.92H28Zm0,67.167H82.631v10.392H28Z" transform="translate(-16.327 6.482)" fill="none" stroke="#f9830d" stroke-width="2" fill-rule="evenodd"/>
      <ellipse id="Ellipse_432" data-name="Ellipse 432" cx="3.899" cy="3.884" rx="3.899" ry="3.884" transform="translate(36.389 129.452)" fill="none" stroke="#d1d1d1" stroke-width="2"/>
    </g>
    <path id="Path_36740" data-name="Path 36740" d="M13.24,52.754h7.911" transform="translate(20.549 81.876)" fill="none" stroke="#d1d1d1" stroke-linejoin="round" stroke-width="2" fill-rule="evenodd"/>
  </g>
</svg>
