<svg id="web-development-f57f945ac3d2e4ad5cd7eef178955a56365fef56bea2ac877cd8accd4028e16f" xmlns="http://www.w3.org/2000/svg" width="251" height="251" viewBox="0 0 251 251">
  <rect id="Rectangle_18269" data-name="Rectangle 18269" width="251" height="251" fill="#d8d8d8" opacity="0.01"/>
  <g id="svg_xml_base64_PHN2ZyB4bWxucz0iaHR0cDovL3d3dy53My5vcmcvMjAwMC9zdmciIHdpZHRoPSI3MiIgaGVpZ2h0PSI3MSIgdmlld0JveD0iMCAwIDcyIDcxIj4KPGcgZmlsbD0ibm9uZSIgZml" data-name="svg+xml;base64,PHN2ZyB4bWxucz0iaHR0cDovL3d3dy53My5vcmcvMjAwMC9zdmciIHdpZHRoPSI3MiIgaGVpZ2h0PSI3MSIgdmlld0JveD0iMCAwIDcyIDcxIj4KPGcgZmlsbD0ibm9uZSIgZml" transform="translate(36 36)">
    <path id="Path_36756" data-name="Path 36756" d="M90.608,141.207c0,2.812-4.674,6.762-7.7,7.7-.322,1.245.476,3.572,1.529,6.926,2.9,9.23-3.505,16.534-11.945,16.534-6.049,0-39.539-9.984-44.57-16.876L14.7,135.421m23.971,26.469L34.5,179.966M93.2,90.483c4.985,6.75,11.927,15.987,11.927,20.4,0,6.348-7.7,6.847-13.126,7.65,1.186,6.356,6.167,9.409,5.1,11.262s-17.623,4.42-27.435,4.42M14.7,1C30.389,1,45.325,5.377,55.278,9.478c28.008,11.538,37.6,39.945,37.3,55.234" transform="translate(20.32 -1)" fill="none" stroke="#d1d1d1" stroke-width="2" fill-rule="evenodd"/>
    <path id="Path_36757" data-name="Path 36757" d="M20.454,70.859H74.921c4.377,7.78,15.562,15.56,27.234,15.56s19.454-17.83,19.454-23.342c0-2.109.136-3.891,0-7.78H24.342C7.486,55.3,1,64.372,1,78.638v7.78M129.388,74.747l50.578,35.016V8.609L125.5,47.514" transform="translate(-1 10.845)" fill="none" stroke="#ec8836" stroke-width="2" fill-rule="evenodd"/>
  </g>
</svg>
