<svg xmlns="http://www.w3.org/2000/svg" width="54.829" height="82.243" viewBox="0 0 54.829 82.243">
  <g id="Group_34420" data-name="Group 34420" transform="translate(-6898 -8697)">
    <path id="path0_fill" d="M13.707,227.414a13.712,13.712,0,0,0,13.707-13.707V200H13.707a13.707,13.707,0,1,0,0,27.414Z" transform="translate(6898 8551.829)" fill="#0acf83"/>
    <path id="path1_fill" d="M0,113.707A13.712,13.712,0,0,1,13.707,100H27.414v27.414H13.707A13.712,13.712,0,0,1,0,113.707Z" transform="translate(6898 8624.414)" fill="#a259ff"/>
    <path id="path1_fill_1_" d="M0,13.707A13.712,13.712,0,0,1,13.707,0H27.414V27.414H13.707A13.712,13.712,0,0,1,0,13.707Z" transform="translate(6898 8697)" fill="#f24e1e"/>
    <path id="path2_fill" d="M100,0h13.707a13.707,13.707,0,1,1,0,27.414H100Z" transform="translate(6825.415 8697)" fill="#ff7262"/>
    <path id="path3_fill" d="M127.414,113.707A13.707,13.707,0,1,1,113.707,100,13.712,13.712,0,0,1,127.414,113.707Z" transform="translate(6825.415 8624.414)" fill="#1abcfe"/>
  </g>
</svg>
