<svg xmlns="http://www.w3.org/2000/svg" width="60.913" height="60.913" viewBox="0 0 60.913 60.913">
  <path id="wordpress-icon" d="M4.3,30.457a26,26,0,0,0,14.657,23.5L6.62,19.863A26.51,26.51,0,0,0,4.3,30.457Zm43.81-1.325A13.451,13.451,0,0,0,45.9,21.959c-1.325-2.208-2.537-3.973-2.537-6.179a4.548,4.548,0,0,1,4.416-4.635h.331A25.746,25.746,0,0,0,30.457,4.3,26.554,26.554,0,0,0,8.608,16.11h1.656c2.76,0,6.952-.331,6.952-.331a1.112,1.112,0,0,1,.221,2.208,22.2,22.2,0,0,1-2.979.221l9.491,28.248,5.737-17.105L25.6,18.205l-2.76-.217a1.108,1.108,0,0,1,.11-2.208s4.3.331,6.841.331c2.76,0,6.952-.331,6.952-.331a1.112,1.112,0,0,1,.221,2.208,22.2,22.2,0,0,1-2.979.221l9.489,28.142,2.665-8.718c1.1-3.641,1.985-6.179,1.985-8.5ZM30.9,32.773,23.063,55.507a27.2,27.2,0,0,0,7.393,1.1,28.878,28.878,0,0,0,8.718-1.435c-.11-.11-.11-.221-.221-.331ZM53.409,17.988l.221,2.665a23.812,23.812,0,0,1-1.985,9.381L43.7,53.1A26.2,26.2,0,0,0,56.72,30.476a27.931,27.931,0,0,0-3.312-12.468ZM30.457,0A30.457,30.457,0,1,0,60.913,30.457,30.517,30.517,0,0,0,30.457,0Zm0,59.588A29.077,29.077,0,1,1,59.478,30.457,29.079,29.079,0,0,1,30.457,59.588Z" fill="#00749a"/>
</svg>
